<svg xmlns="http://www.w3.org/2000/svg" width="400" height="200" viewBox="0 0 400 300">
  <polyline points="50.0,180.0
51.5,179.9621838305917
53.0,179.8502517506646
54.5,179.6664612139315
56.0,179.41304675579346
57.5,179.0922199933396
59.0,178.70616962534737
60.5,178.25706143228237
62.0,177.74703827629838
63.5,177.17822010123737
65.0,176.55270393262953
66.50000000000003,175.87256387769324
68.00000000000003,175.13985112533507
69.50000000000003,174.3565939461498
71.00000000000003,173.52479769242032
72.50000000000001,172.64644479811784
74.00000000000003,171.72349477890168
75.50000000000003,170.7578842321194
77.00000000000003,169.75152683680676
78.50000000000003,168.70631335368765
80.00000000000003,167.6241116251742
81.50000000000003,166.50676657536675
83.00000000000003,165.35610021005382
84.50000000000003,164.17391161671208
86.00000000000003,162.96197696450648
87.50000000000003,161.7220495042901
89.00000000000003,160.45585956860427
90.50000000000004,159.16511457167843
92.00000000000004,157.85149900943028
93.50000000000004,156.51667445946572
95.00000000000004,155.16227958107876
96.50000000000004,153.78993011525176
98.00000000000004,152.40121888465515
99.50000000000004,150.99771579364756
101.00000000000004,149.58096782827585
102.50000000000004,148.1524990562751
104.00000000000004,146.7138106270685
105.50000000000004,145.2663807717676
107.00000000000006,143.81166480317188
108.50000000000006,142.35109511576928
110.00000000000006,140.88608118573575
111.50000000000006,139.41800957093557
113.00000000000006,137.9482439109211
114.50000000000006,136.47812492693296
116.00000000000006,135.00897042189996
117.50000000000006,133.5420752804391
119.00000000000006,132.07871146885557
120.50000000000006,130.62012803514273
122.00000000000006,129.16755110898217
123.50000000000007,127.7221839017437
125.00000000000007,126.28520670648527
126.50000000000007,124.85777689795302
128.00000000000006,123.4410289325813
129.50000000000006,122.03607434849272
131.00000000000006,120.644001765498
132.50000000000006,119.26587688509608
134.00000000000006,117.90274249047408
135.50000000000006,116.5556184465074
137.00000000000009,115.22550169975946
138.50000000000009,113.91336627848209
140.00000000000009,112.62016329261512
141.50000000000009,111.34682093378672
143.00000000000009,110.09424447531319
144.50000000000009,108.86331627219899
146.00000000000009,107.65489576113687
147.50000000000009,106.4698194605077
149.00000000000009,105.30890097038055
150.50000000000009,104.1729309725127
152.00000000000009,103.06267723034966
153.50000000000009,101.97888458902509
155.00000000000009,100.92227497536082
156.50000000000009,99.89354739786694
158.0000000000001,98.89337794674168
159.5000000000001,97.92241979387154
161.0000000000001,96.98130319283112
162.5000000000001,96.07063547888326
164.0000000000001,95.191001068979
165.5000000000001,94.3429614617576
167.0000000000001,93.5270552375464
168.5000000000001,92.74379805836111
170.0000000000001,91.9936826679055
171.5000000000001,91.27717889157157
173.0000000000001,90.59473363643956
174.5000000000001,89.94677089127781
176.0000000000001,89.33369172654295
177.5000000000001,88.75587429437977
179.0000000000001,88.21367382862124
180.5000000000001,87.70742264478852
182.0000000000001,87.23743014009099
183.5000000000001,86.80398279342623
185.0000000000001,86.40734416538
186.5000000000001,86.04775489822624
188.0000000000001,85.7254327159271
189.5000000000001,85.44057242413295
191.0000000000001,85.19334591018229
192.5000000000001,84.98390214310189
194.0000000000001,84.81236717360663
195.50000000000014,84.67884413409969
197.00000000000014,84.58341323867236
198.50000000000014,84.52613178310416
200.00000000000014,84.5070341448628
201.50000000000014,84.52613178310416
203.00000000000014,84.58341323867238
204.50000000000014,84.67884413409972
206.00000000000014,84.81236717360666
207.50000000000014,84.98390214310189
209.00000000000014,85.19334591018233
210.50000000000014,85.440572424133
212.00000000000014,85.72543271592716
213.50000000000014,86.04775489822632
215.00000000000014,86.40734416538007
216.50000000000014,86.80398279342631
218.00000000000014,87.23743014009106
219.50000000000014,87.7074226447886
221.00000000000014,88.21367382862132
222.50000000000014,88.75587429437986
224.00000000000017,89.33369172654307
225.50000000000017,89.94677089127792
227.00000000000017,90.59473363643968
228.50000000000017,91.2771788915717
230.00000000000017,91.99368266790565
231.50000000000017,92.74379805836125
233.00000000000017,93.52705523754655
234.50000000000017,94.34296146175772
236.00000000000017,95.19100106897916
237.50000000000017,96.07063547888342
239.00000000000017,96.98130319283126
240.50000000000017,97.92241979387171
242.00000000000017,98.89337794674188
243.50000000000017,99.89354739786712
245.00000000000017,100.922274975361
246.50000000000017,101.97888458902528
248.00000000000017,103.06267723034986
249.50000000000017,104.1729309725129
251.00000000000017,105.30890097038075
252.50000000000017,106.4698194605079
254.00000000000017,107.65489576113708
255.50000000000017,108.86331627219921
257.00000000000017,110.0942444753134
258.50000000000017,111.34682093378696
260.00000000000017,112.62016329261536
261.50000000000017,113.9133662784823
263.00000000000017,115.22550169975969
264.50000000000017,116.55561844650762
266.0000000000002,117.90274249047434
267.5000000000002,119.26587688509632
269.0000000000002,120.64400176549825
270.5000000000002,122.03607434849297
272.0000000000002,123.44102893258157
273.5000000000002,124.85777689795327
275.0000000000002,126.28520670648552
276.5000000000002,127.72218390174396
278.0000000000002,129.16755110898245
279.5000000000002,130.62012803514298
281.0000000000002,132.0787114688558
282.5000000000002,133.54207528043935
284.0000000000002,135.00897042190022
285.5000000000002,136.47812492693322
287.0000000000002,137.94824391092135
288.5000000000002,139.4180095709358
290.0000000000002,140.886081185736
291.5000000000002,142.3510951157695
293.0000000000002,143.81166480317216
294.5000000000002,145.26638077176784
296.0000000000002,146.7138106270688
297.5000000000002,148.15249905627536
299.0000000000002,149.5809678282761
300.5000000000002,150.9977157936478
302.0000000000002,152.4012188846554
303.5000000000002,153.78993011525202
305.0000000000002,155.16227958107902
306.5000000000002,156.51667445946595
308.0000000000002,157.8514990094305
309.5000000000002,159.16511457167866
311.0000000000002,160.4558595686045
312.5000000000002,161.72204950429034
314.0000000000002,162.9619769645067
315.5000000000002,164.1739116167123
317.0000000000002,165.35610021005402
318.5000000000002,166.50676657536695
320.0000000000002,167.6241116251744
321.5000000000002,168.70631335368782
323.0000000000002,169.75152683680693
324.5000000000002,170.75788423211958
326.0000000000002,171.72349477890185
327.5000000000002,172.64644479811798
329.0000000000002,173.52479769242046
330.5000000000002,174.35659394614993
332.0000000000002,175.1398511253352
333.5000000000002,175.87256387769338
335.0000000000002,176.55270393262967
336.5000000000002,177.17822010123749
338.0000000000002,177.74703827629847
339.5000000000002,178.25706143228246
341.0000000000002,178.70616962534746
342.5000000000002,179.09221999333965
344.0000000000002,179.4130467557935
345.5000000000002,179.66646121393157
347.0000000000002,179.85025175066463
348.5000000000002,179.96218383059173"
 style="fill:none;stroke:#e37222;stroke-width:3" />
 <g stroke="#0065bd" fill="#0065bd" stroke-width="4">
      <polyline points="200,30 200,250" stroke-dasharray="15,10">
      </polyline>
  </g>
 <g stroke="#0065bd" fill="#0065bd" stroke-width="4">
      <polyline points="30.0,183.8 370,183.8" stroke-dasharray="15,10">
      </polyline>
  </g>
</svg>