<?xml version="1.0" encoding="UTF-8" standalone="no"?>
<svg
   xmlns:dc="http://purl.org/dc/elements/1.1/"
   xmlns:cc="http://creativecommons.org/ns#"
   xmlns:rdf="http://www.w3.org/1999/02/22-rdf-syntax-ns#"
   xmlns:svg="http://www.w3.org/2000/svg"
   xmlns="http://www.w3.org/2000/svg"
   xmlns:sodipodi="http://sodipodi.sourceforge.net/DTD/sodipodi-0.dtd"
   xmlns:inkscape="http://www.inkscape.org/namespaces/inkscape"
   sodipodi:docname="good_configuration_delaunay - Kopie.svg"
   id="svg8"
   version="1.1"
   viewBox="0 0 80 60"
   height="60mm"
   width="80mm"
   inkscape:version="1.0 (4035a4fb49, 2020-05-01)">
  <defs
     id="defs2" />
  <sodipodi:namedview
     inkscape:window-maximized="1"
     inkscape:window-y="-9"
     inkscape:window-x="-9"
     inkscape:window-height="1013"
     inkscape:window-width="1920"
     showguides="false"
     showgrid="true"
     inkscape:document-rotation="0"
     inkscape:current-layer="layer1"
     inkscape:document-units="mm"
     inkscape:cy="116.56797"
     inkscape:cx="118.93048"
     inkscape:zoom="3.2739478"
     inkscape:pageshadow="2"
     inkscape:pageopacity="0.0"
     borderopacity="1.0"
     bordercolor="#666666"
     pagecolor="#ffffff"
     id="base">
    <inkscape:grid
       originy="-100"
       originx="-20"
       id="grid10"
       type="xygrid" />
  </sodipodi:namedview>
  <metadata
     id="metadata5">
    <rdf:RDF>
      <cc:Work
         rdf:about="">
        <dc:format>image/svg+xml</dc:format>
        <dc:type
           rdf:resource="http://purl.org/dc/dcmitype/StillImage" />
        <dc:title />
      </cc:Work>
    </rdf:RDF>
  </metadata>
  <g
     transform="translate(-20,-100)"
     style="display:inline"
     id="layer1"
     inkscape:groupmode="layer"
     inkscape:label="Ebene 1">
    <rect
       y="100.25013"
       x="20.25013"
       height="59.499741"
       width="79.499741"
       id="rect1059"
       style="display:inline;opacity:1;fill:none;fill-opacity:1;stroke:#343a40;stroke-width:0.500259;stroke-miterlimit:4;stroke-dasharray:none;stroke-opacity:1" />
    <circle
       style="display:inline;fill:none;fill-opacity:1;stroke:#343a40;stroke-width:0.499999;stroke-miterlimit:4;stroke-dasharray:none;stroke-opacity:1"
       id="path1246"
       cx="59.938999"
       cy="142.172"
       r="12.877" />
    <circle
       style="fill:none;fill-opacity:1;stroke:#343a40;stroke-width:0.499999;stroke-miterlimit:4;stroke-dasharray:none;stroke-opacity:1"
       id="path1211"
       cx="51"
       cy="117"
       r="13.946" />
    <circle
       style="fill:none;fill-opacity:1;stroke:#343a40;stroke-width:0.499999;stroke-miterlimit:4;stroke-dasharray:none;stroke-opacity:1"
       id="path1244"
       cx="51"
       cy="138"
       r="8.276" />
    <circle
       style="fill:none;fill-opacity:1;stroke:#343a40;stroke-width:0.499999;stroke-miterlimit:4;stroke-dasharray:none;stroke-opacity:1"
       id="path1249"
       cx="64.173996"
       cy="130.174"
       r="9.6789999" />
    <g
       id="g1279"
       inkscape:label="Delaunay"
       style="stroke:#e37222;stroke-width:0.5;stroke-miterlimit:4;stroke-dasharray:none;stroke-opacity:1">
      <path
         id="path1271"
         style="fill:none;stroke:#e37222;stroke-width:0.5;stroke-linecap:round;stroke-linejoin:round;stroke-miterlimit:4;stroke-dasharray:none;stroke-opacity:1"
         d="m 47.5,130.5 h 7 l 10,-10 z" />
      <path
         id="path1273"
         style="fill:none;stroke:#e37222;stroke-width:0.5;stroke-linecap:round;stroke-linejoin:round;stroke-miterlimit:4;stroke-dasharray:none;stroke-opacity:1"
         d="m 54.5,130.5 17,6 -7,-16 z" />
      <path
         id="path1275"
         style="fill:none;stroke:#e37222;stroke-width:0.5;stroke-linecap:round;stroke-linejoin:round;stroke-miterlimit:4;stroke-dasharray:none;stroke-opacity:1"
         d="m 47.5,145.5 7,-15 h -7 z" />
      <path
         id="path1277"
         style="fill:none;stroke:#e37222;stroke-width:0.5;stroke-linecap:round;stroke-linejoin:round;stroke-miterlimit:4;stroke-dasharray:none;stroke-opacity:1"
         d="m 47.5,145.5 24,-9 -17,-6 z" />
    </g>
    <rect
       ry="0.31510979"
       y="152.31172"
       x="21.381304"
       height="6.3765545"
       width="9.3765545"
       id="rect29"
       style="fill:#a2ad00;stroke:#a2ad00;stroke-width:0.623445" />
    <path
       id="path854"
       d="m 23.290216,155.68633 1.845201,1.47617 3.6904,-3.69041 v 0"
       style="fill:none;stroke:#f8f9fa;stroke-width:0.697398;stroke-linecap:butt;stroke-linejoin:miter;stroke-miterlimit:4;stroke-dasharray:none;stroke-opacity:1" />
  </g>
  <g
     transform="translate(-20,-100)"
     inkscape:label="Ebene 2"
     id="layer2"
     inkscape:groupmode="layer">
    <ellipse
       ry="1.2615907"
       rx="1.2615902"
       cy="136.5"
       cx="71.5"
       id="ellipse1063"
       style="fill:#343a40;fill-opacity:1;stroke:#343a40;stroke-width:0.476819;stroke-miterlimit:4;stroke-dasharray:none;stroke-opacity:1" />
    <ellipse
       ry="1.2615907"
       rx="1.2615902"
       cy="130.5"
       cx="47.5"
       id="ellipse864"
       style="fill:#343a40;fill-opacity:1;stroke:#343a40;stroke-width:0.476819;stroke-miterlimit:4;stroke-dasharray:none;stroke-opacity:1" />
    <ellipse
       style="fill:#343a40;fill-opacity:1;stroke:#343a40;stroke-width:0.476819;stroke-miterlimit:4;stroke-dasharray:none;stroke-opacity:1"
       id="ellipse1061"
       cx="54.5"
       cy="130.5"
       rx="1.2615902"
       ry="1.2615907" />
    <ellipse
       ry="1.2615907"
       rx="1.2615902"
       cy="120.5"
       cx="64.5"
       id="ellipse860"
       style="fill:#343a40;fill-opacity:1;stroke:#343a40;stroke-width:0.476819;stroke-miterlimit:4;stroke-dasharray:none;stroke-opacity:1" />
    <ellipse
       style="fill:#343a40;fill-opacity:1;stroke:#343a40;stroke-width:0.476819;stroke-miterlimit:4;stroke-dasharray:none;stroke-opacity:1"
       id="ellipse862"
       cx="47.5"
       cy="145.5"
       rx="1.2615899"
       ry="1.2615904" />
    <ellipse
       style="fill:#343a40;fill-opacity:1;stroke:#343a40;stroke-width:0.476819;stroke-miterlimit:4;stroke-dasharray:none;stroke-opacity:1"
       id="ellipse1063-3"
       cx="175.97395"
       cy="136.37082"
       rx="1.2615892"
       ry="1.2615898" />
    <ellipse
       style="fill:#343a40;fill-opacity:1;stroke:#343a40;stroke-width:0.476819;stroke-miterlimit:4;stroke-dasharray:none;stroke-opacity:1"
       id="ellipse864-0"
       cx="132.05313"
       cy="124.33231"
       rx="1.2615892"
       ry="1.2615898" />
    <ellipse
       ry="1.2615898"
       rx="1.2615892"
       cy="124.19998"
       cx="145.0177"
       id="ellipse1061-1"
       style="fill:#343a40;fill-opacity:1;stroke:#343a40;stroke-width:0.476819;stroke-miterlimit:4;stroke-dasharray:none;stroke-opacity:1" />
    <ellipse
       style="fill:#343a40;fill-opacity:1;stroke:#343a40;stroke-width:0.476819;stroke-miterlimit:4;stroke-dasharray:none;stroke-opacity:1"
       id="ellipse860-3"
       cx="162.54634"
       cy="105.94375"
       rx="1.2615892"
       ry="1.2615898" />
    <ellipse
       ry="1.2615898"
       rx="1.2615892"
       cy="151.84897"
       cx="132.05312"
       id="ellipse862-2"
       style="fill:#343a40;fill-opacity:1;stroke:#343a40;stroke-width:0.476819;stroke-miterlimit:4;stroke-dasharray:none;stroke-opacity:1" />
  </g>
</svg>
