<svg xmlns="http://www.w3.org/2000/svg" viewBox="0 0 400 300" class="{{ include.class }}">
  <defs>
    <style type="text/css">
      .gen-general { display: none}
      .generalized .gen-general { display: initial; }
      .generalized .gen-original { display: none; }
    </style>
  </defs>
  <!-- classification -->
  <g id="gen-classification">
    <g class="gen-general">
      <path d="M63.2,218c-1.7,2.3-5.2,2.1-11.7,6.4-4,2.6-3.9,3.5-6.5,4.3-4.2,1.3-8.4,0-11.7-1.1s-5.5-2.7-15.7-8.6c-6.9-4-8.7-4.8-10.4-5.4A34.8,34.8,0,0,0,0,212V117a6.7,6.7,0,0,1,4.4-2.2c2.2-.1,2.9,1.4,18.3,17.2,18.7,19.3,18.3,17.7,20.9,21.5,9.7,14.5,2.8,17.9,13.1,36.5,3,5.4,4.2,9.7,6.5,18.3C64.5,213.1,64.9,215.7,63.2,218Z" fill="#a2ad00"/>
      <path d="M400,53.1v80.6l-1.5.3c-10.9,1.8-13.8-6.1-28.7-6.4-10-.2-15,3.2-27.4,1.1a23.6,23.6,0,0,1-5.6-1.5,4.9,4.9,0,0,1-2.2-1.7c-2.4-3.4,2.2-6.8,5.2-16.1,1.4-4.4.3-3.5,2.6-15,1.4-7.4,1.5-9.9,3.9-14S351.9,74,358,69.7s13.4-9.4,24.8-12.9C390.1,54.6,395.3,53,400,53.1Z" fill="#a2ad00"/>
    </g>
    <g class="gen-original">
      <circle cx="6.5" cy="124.4" r="2.5" fill="#a2ad00"/>
      <circle cx="19.5" cy="137" r="2.5" fill="#a2ad00"/>
      <circle cx="4" cy="142" r="2.5" fill="#a2ad00"/>
      <circle cx="14.5" cy="148" r="2.5" fill="#a2ad00"/>
      <circle cx="29.4" cy="149.5" r="2.5" fill="#a2ad00"/>
      <circle cx="9" cy="162.7" r="2.5" fill="#a2ad00"/>
      <circle cx="41.9" cy="165.2" r="2.5" fill="#a2ad00"/>
      <circle cx="26" cy="167.7" r="2.5" fill="#a2ad00"/>
      <circle cx="17" cy="181" r="2.5" fill="#a2ad00"/>
      <circle cx="5.5" cy="192.7" r="2.5" fill="#a2ad00"/>
      <circle cx="19.5" cy="198.7" r="2.5" fill="#a2ad00"/>
      <circle cx="28.5" cy="211.5" r="2.5" fill="#a2ad00"/>
      <circle cx="9.5" cy="211" r="2.5" fill="#a2ad00"/>
      <circle cx="34.4" cy="186" r="2.5" fill="#a2ad00"/>
      <circle cx="48" cy="213.5" r="2.5" fill="#a2ad00"/>
      <circle cx="38.9" cy="224.7" r="2.5" fill="#a2ad00"/>
      <circle cx="50.5" cy="195.2" r="2.5" fill="#a2ad00"/>
      <circle cx="365.5" cy="71.5" r="2.5" fill="#a2ad00"/>
      <circle cx="392.4" cy="61.8" r="2.5" fill="#a2ad00"/>
      <circle cx="382" cy="74" r="2.5" fill="#a2ad00"/>
      <circle cx="394.9" cy="85.7" r="2.5" fill="#a2ad00"/>
      <circle cx="351.7" cy="85.7" r="2.5" fill="#a2ad00"/>
      <circle cx="373.2" cy="91.4" r="2.5" fill="#a2ad00"/>
      <circle cx="349.2" cy="105.9" r="2.5" fill="#a2ad00"/>
      <circle cx="366.5" cy="122.2" r="2.5" fill="#a2ad00"/>
      <circle cx="377.3" cy="108.4" r="2.5" fill="#a2ad00"/>
      <circle cx="391.5" cy="101.4" r="2.5" fill="#a2ad00"/>
      <circle cx="389" cy="123" r="2.5" fill="#a2ad00"/>
    </g>
  </g>
  <!-- exaggeration -->
  <g id="gen-exaggeration">
    <g class="gen-general">
      <polyline points="121.8 211.5 121.8 136.3 176.6 136.3 176.6 75" fill="none" stroke="#6c757d" stroke-linejoin="round" stroke-width="6"/>
      <circle cx="121.8" cy="211.5" r="3" fill="#6c757d"/>
    </g>
    <g class="gen-original">
      <polyline points="121.8 211.5 121.8 136.3 176.6 136.3 176.6 75" fill="none" stroke="#6c757d" stroke-linecap="round" stroke-linejoin="round" stroke-width="2"/>
    </g>
  </g>
  <!-- displacement -->
  <g id="gen-displacement">
    <g class="gen-general">
      <rect x="160.5" y="120.5" width="11" height="11" fill="#e37222"/>
      <rect x="255.5" y="267.5" width="11" height="11" fill="#e37222"/>
      <rect x="268.5" y="273.5" width="11" height="11" fill="#e37222"/>
      <rect x="281.5" y="279.5" width="11" height="11" fill="#e37222"/>
      <rect x="126.5" y="140.5" width="11" height="11" fill="#e37222"/>
      <rect x="139.5" y="140.5" width="11" height="11" fill="#e37222"/>
      <rect x="152.5" y="140.5" width="11" height="11" fill="#e37222"/>
      <rect x="165.5" y="140.5" width="11" height="11" fill="#e37222"/>
      <rect x="126.5" y="153.5" width="11" height="11" fill="#e37222"/>
      <rect x="147.5" y="120.5" width="11" height="11" fill="#e37222"/>
      <rect x="134.5" y="120.5" width="11" height="11" fill="#e37222"/>
      <rect x="160.5" y="107.5" width="11" height="11" fill="#e37222"/>
    </g>
    <g class="gen-original">
      <rect x="162.5" y="122.5" width="11" height="11" fill="#e37222"/>
      <rect x="257.5" y="268.5" width="11" height="11" fill="#e37222"/>
      <rect x="268.5" y="273.5" width="11" height="11" fill="#e37222"/>
      <rect x="279.5" y="278.5" width="11" height="11" fill="#e37222"/>
      <rect x="124.5" y="138.5" width="11" height="11" fill="#e37222"/>
      <rect x="136.5" y="138.5" width="11" height="11" fill="#e37222"/>
      <rect x="148.5" y="138.5" width="11" height="11" fill="#e37222"/>
      <rect x="160.5" y="138.5" width="11" height="11" fill="#e37222"/>
      <rect x="124.5" y="150.5" width="11" height="11" fill="#e37222"/>
      <rect x="150.5" y="122.5" width="11" height="11" fill="#e37222"/>
      <rect x="138.5" y="122.5" width="11" height="11" fill="#e37222"/>
      <rect x="162.5" y="110.5" width="11" height="11" fill="#e37222"/>
    </g>
  </g>
  <!-- smoothing -->
  <g id="gen-smoothing">
    <g class="gen-general">
      <path d="M207.5,75c5.8,0,9.9-2.5,15.8-6.4,8.5-5.7,8.8-8.4,15.7-13.1,11.7-8.1,17.3-4.8,25-11.5,3.7-3.2,8.3-9.1,10.3-20.5" fill="none" stroke="#6c757d" stroke-linecap="round" stroke-linejoin="round" stroke-width="2"/>
      <polyline points="165.5 23.5 165.5 75 210 75" fill="none" stroke="#6c757d" stroke-linecap="round" stroke-linejoin="round" stroke-width="2"/>
      <path d="M210,75c10,0,17,9.2,30.3,10.7,11.8,1.3,27.8,8.5,29.3,15.1.8,3.8.7,5.1,2.8,7.5,5,6,16,4.9,24.3,3.3" fill="none" stroke="#6c757d" stroke-linecap="round" stroke-linejoin="round" stroke-width="2"/>
      <rect x="103.6" y="156.3" width="10.7" height="21.61" fill="#e37222"/>
      <rect x="103.6" y="181.9" width="10.7" height="21.61" fill="#e37222"/>
    </g>
    <g class="gen-original">
      <polyline points="165.5 23.5 165.5 75 210 75" fill="none" stroke="#6c757d" stroke-linecap="round" stroke-linejoin="round" stroke-width="2"/>
      <polyline points="207 75 214.6 75 225.5 87 252 87 252 94 261.8 94 274 101.5 274 111.5 291 111.5" fill="none" stroke="#6c757d" stroke-linecap="round" stroke-linejoin="round" stroke-width="2"/>
      <polyline points="205.3 75 221.8 75 229 67 229 57.5 244.5 57.5 254.9 48.3 267.8 48.3 267.8 38 275.3 27" fill="none" stroke="#6c757d" stroke-linecap="round" stroke-linejoin="round" stroke-width="2"/>
      <rect x="98.2" y="161.7" width="21.6" height="10.7" transform="translate(-71.1 252.9) rotate(-82.4)" fill="#e37222"/>
      <rect x="103.6" y="181.9" width="10.7" height="21.61" transform="translate(-27.8 18.6) rotate(-8.7)" fill="#e37222"/>
    </g>
  </g>
  <!-- aggregation -->
  <g id="gen-aggregation">
    <g class="gen-general">
      <polygon points="20 45.9 40.9 45.9 40.9 72.9 34.4 72.9 34.4 81.7 25.2 81.7 25.2 72.9 20 72.9 20 45.9" fill="#e37222"/>
      <rect x="325.5" y="183.5" width="42" height="20" fill="#e37222"/>
    </g>
    <g class="gen-original">
      <rect x="358.5" y="183.5" width="9" height="9" fill="#e37222"/>
      <rect x="358.5" y="194.5" width="9" height="9" fill="#e37222"/>
      <rect x="347.5" y="183.5" width="9" height="9" fill="#e37222"/>
      <rect x="347.5" y="194.5" width="9" height="9" fill="#e37222"/>
      <rect x="336.5" y="183.5" width="9" height="9" fill="#e37222"/>
      <rect x="336.5" y="194.5" width="9" height="9" fill="#e37222"/>
      <rect x="325.5" y="183.5" width="9" height="9" fill="#e37222"/>
      <rect x="325.5" y="194.5" width="9" height="9" fill="#e37222"/>
      <rect x="20" y="45.8" width="7.8" height="7" fill="#e37222"/>
      <rect x="31.8" y="45.9" width="7.8" height="8" fill="#e37222"/>
      <rect x="20" y="54.9" width="9.1" height="8" fill="#e37222"/>
      <rect x="33.1" y="56.6" width="7.8" height="9" fill="#e37222"/>
      <rect x="20" y="65" width="7.8" height="7" fill="#e37222"/>
      <rect x="30.5" y="67.5" width="11.7" height="4.3" fill="#e37222"/>
      <rect x="23.9" y="73.7" width="10.4" height="8" fill="#e37222"/>
    </g>
  </g>
  <!-- collapse -->
  <g id="gen-collapse">
    <g class="gen-general">
      <path d="M74.8,238.3a300.3,300.3,0,0,0-5.2-64.5l-1.3-6.4" fill="none" stroke="#0065bd" stroke-linecap="round" stroke-miterlimit="10" stroke-width="3"/>
      <path d="M68.6,168.4h-.2c-3.1-5.6-4.3-6.4-7.1-11.3-4.7-8.2-6.5-9.8-11.3-17.3a97,97,0,0,0-13-16.2c-7.8-7.8-12.5-10-24.8-19.3C9,101.6,4.8,98.4,0,94.4" fill="none" stroke="#0065bd" stroke-linecap="round" stroke-miterlimit="10" stroke-width="3"/>
      <path d="M68.5,168.4h0c.8-5.2,2.2-10.5,4.1-20.1,3.8-19.5,5.1-20.6,7.8-35.5,3.8-20.8,2.1-23.4,6.5-34.4,2.4-6.2,2.8-5,11.7-21.4s13.4-24.8,17-35.5A103.5,103.5,0,0,0,120.4,0" fill="none" stroke="#0065bd" stroke-linecap="round" stroke-miterlimit="10" stroke-width="3"/>
    </g>
    <g class="gen-original">
      <path d="M131,0c-6.3,26.8-8.4,31.4-8.4,31.4-15.3,33-23.5,50.6-28.8,68.9-4.5,15.5-.1,7.7-9.1,59.1-.3,1.8-4.8,27.4-5.2,49.4-.2,9.9-.3,16.2.8,21.5a25.4,25.4,0,0,0,1.8,5.4c2,4.4,4.4,7.6,2.6,9.7-3.4,3.8-18.7.8-19.6-3.2-.4-2,3-2.9,5.2-7.5a16.2,16.2,0,0,0,1.4-7.4,12.3,12.3,0,0,0-.1-1.3,123.1,123.1,0,0,0-7.8-36.5c-9.6-22.9-14.4-34.3-20.9-43-9.5-12.7-20.4-22.3-39.2-38.7L0,104.6V82.1a73,73,0,0,0,6.3,9.6c2.4,3.1,7.3,7.5,17,16.1,18.9,16.9,18.6,15.2,23.5,20.4,15.9,16.8,17.5,32.7,20.9,32.2s2.6-15.2,2.6-22.6c.1-61.5,49.6-103,46.6-137.8Z" fill="#0065bd"/>
    </g>
  </g>
  <!-- simplification -->
  <g id="gen-simplification">
    <g class="gen-general">
      <polygon points="217.1 212.6 223.6 212.6 224.9 212.6 227.5 212.6 228.9 212.6 235.4 212.6 235.4 226.5 235.4 227.6 235.4 229.7 235.4 230.8 235.4 236.2 217.1 236.2 208 236.2 208 227.6 217.1 227.6 217.1 212.6" fill="#e37222"/>
      <polygon points="153.2 11.7 168.8 11.7 168.8 5.2 181.9 5.2 181.9 11.7 200.1 11.7 200.1 26.7 191 26.7 191 26.7 162.3 26.7 162.3 26.7 153.2 26.7 153.2 11.7" fill="#e37222"/>
      <path d="M400,299.3l-3.5-.9h0a26.4,26.4,0,0,1-11.1-6.2c-6.4-6.4-6.5-15.3-8.2-20.5-.7-2.2-1.7-3.7-3.5-4.2-6.2-1.7-13.1,8.4-18.3,6.4a4.3,4.3,0,0,1-2.4-2.9c-1.3-4-.3-10.5-3.3-12.7l-.7-.4c-5.2-2.3-13.6,5.3-18.3,3.2a4.3,4.3,0,0,1-1.9-1.5h0a6.3,6.3,0,0,1-.9-1.8h0c-.5-1.5-.6-3.2-1.2-4.6a4.5,4.5,0,0,0-1.5-2.1l-1.2-.6c-4.7-1.7-8.7,5.8-18.3,6.4l-5,.4c-7.9.6-17.6.7-19.6-5.9a11,11,0,0,1-.2-5v-.5c1.3-6.5,6.4-8.2,11.8-8.7l5.6-.2,3.7-.2h0c2.6-.3,4.5-1,4.9-2.9s-.5-4.7-2.9-6.6h0a23.4,23.4,0,0,0-8.9-3.9c-8.1-2-14.8-1-20.6-.3l-3.6.4c-3.5.3-6.6.3-9.6-1l-.9-.4c-4.6-2.5-8.1-9.7-5.6-28.6" fill="none" stroke="#0065bd" stroke-linecap="round" stroke-miterlimit="10" stroke-width="2"/>
    </g>
    <g class="gen-original">
      <polygon points="217.1 212.6 223.6 212.6 223.6 217.9 228.9 217.9 228.9 212.6 235.4 212.6 235.4 226.5 239.3 226.5 239.3 230.8 234.1 230.8 234.1 236.2 217.1 236.2 208 236.2 208 227.6 217.1 223.3 217.1 212.6" fill="#e37222"/>
      <polygon points="153.2 11.7 168.8 11.7 168.8 5.2 181.9 5.2 187.1 11.7 200.1 11.7 200.1 26.7 191 29.9 191 23.5 162.3 23.5 162.3 26.7 153.2 26.7 153.2 11.7" fill="#e37222"/>
      <path d="M400,297.4l-2.5,1h-1c-11.3-1.2-28.1-24.9-23.7-28.6.7-.6.8,1.4,3.3,1.7h1.1c2.3.2,4.9,0,5.7-1.2s-5.2-8.9-13.1-8.6a12.7,12.7,0,0,0-9.1,4.3c-2.7,3.5-2,7.2-2.6,7.5s-1.2-1.2-2.8-1.8l-2.3-.9c-3.3-1.4-6.9-3.3-6.6-5.9.1-.8,2-.7,3.7-3,.4-.6-.2-2.6-.5-3.9a2,2,0,0,1,0-1.1c1.9-2.4,3.7-1.7,3.3-2.7a4.6,4.6,0,0,0-3.9-2.1c-2.7-.2-3.8,1.9-7.8,4.3-2.2,1.3-7.7,4.6-11.7,3.2h-.2l-.6-.3a2.4,2.4,0,0,1-.9-1.8h0c-.1-1.1.1-2.4-.3-3.4a3.8,3.8,0,0,0-.9-1.2c-.7-.7-1.6-1.2-1.5-2.1v-.2c.9-3.6,3.7-6.4,2.9-6.9s-6.8,6.3-16.8,11.2c-2.4,1.2-5.9.4-8.8,1.3l-1.8.8c-2.2,1.1-4.3,2.8-6.5,2.8-5.5-.1-13.1-1.9-14.4-5.4-.4-1,.7-1.9,1.3-3.3a5.4,5.4,0,0,0,.4-3.1,5.8,5.8,0,0,0-.6-2c-.9-1.8-2.5-2-2.4-3.4.3-4,5.2-8.1,10.4-8.6,1.6-.2,1.6,1.8,3.9,2.8l.9.4a7.4,7.4,0,0,0,4.7-.6c1.2-.4,2.3-.9,3-.5l.7.3c2,.8,5.7,2,6.6,1.7s-2.1-3-1.5-4.7,4.2-2.6,3.3-4.2-3-1.9-6.4-2.3c-5.4-.7-13.3-.7-20.9-1.5-5-.6-7.2-1.8-8.6-2.7s-1.6-1.1-2.6-.5a3.1,3.1,0,0,0-1,1c-1.2,1.6-1.6,4.3-4.4,4.4s-4.6-2.6-6.1-5.8a22.5,22.5,0,0,1-1.2-3.7c-.2-.7-2.7-2.6-2.7-3.3.2-5.3,5.3-3.4,6-9.6a10.9,10.9,0,0,0-1.3-7.5,16.2,16.2,0,0,0-6.2-5.4h-.1" fill="none" stroke="#0065bd" stroke-linecap="round" stroke-miterlimit="10" stroke-width="2"/>
    </g>
  </g>
  <!-- selection -->
  <g id="gen-selection">
    <g class="gen-general"></g>
    <g class="gen-original">
      <path d="M265.4,114.8c-5,5-10.6,12.4-9.1,20.4s7.7,10,7.8,16.1c.1,4.5-3.2,11.1-19.6,19.3" fill="none" stroke="#0065bd" stroke-linecap="round" stroke-miterlimit="10" stroke-width="2"/>
      <path d="M359.4,112.6a106.2,106.2,0,0,1-23.5,15q-5.1,2.4-10.4,4.3" fill="none" stroke="#0065bd" stroke-linecap="round" stroke-miterlimit="10" stroke-width="2"/>
      <rect x="332.5" y="23.5" width="13" height="13" fill="#e37222"/>
      <rect x="364.8" y="147.4" width="10" height="10" fill="#e37222"/>
      <rect x="28.5" y="18.5" width="15" height="11" fill="#e37222"/>
      <rect x="337.5" y="284" width="7" height="6" fill="#e37222"/>
      <rect x="202.6" y="111.5" width="12" height="12" fill="#e37222"/>
      <rect x="134" y="231" width="10" height="8" fill="#e37222"/>
    </g>
  </g>
  <!-- background -->
  <g id="gen-background">
    <path d="M119.2,300H0V227.3a12.3,12.3,0,0,1,5-2.4c11.2-2.3,26.4,16.8,39.2,11.8,5.2-2.1,4.5-6,10.4-8.6s10.9-2.1,17.1-.7l3.2.8a42.3,42.3,0,0,1,5.4,2.1,32.3,32.3,0,0,1,8.2,5.3c14.1,12.9-3,26.8,10.2,44.8l.2.3C105.2,289,113.5,292.4,119.2,300Z" fill="#0065bd"/>
    <path d="M400,48.7c-40.6,4.2-56.1,15.7-62.8,25.4-11.5,16.7,2.5,29.1-9.1,52.6-14,28.2-49.3,40.3-50.9,40.8-33.8,11-51.9-6.6-74.4,7.5-15.2,9.5-25.4,29.6-27.4,33.4s-3.4,7.9-6.5,16c-9.1,23.4-5.8,32.2-14.4,40.8s-23.3,15.6-55.8,15.2l-8.2-.2" fill="none" stroke="#0065bd" stroke-linecap="round" stroke-miterlimit="10" stroke-width="3"/>
    <path d="M181.9,197.5c32.3-11.6,61.4-7.5,61.4-7.5,4.1.6,8.1,1.3,12,2.3a185.4,185.4,0,0,1,40.2,14.9c14.2,7.9,21.5,15.2,35.2,16.1s18.1-5.2,31.3-5.4c9-.1,21.9,2.4,38.1,15.2" fill="none" stroke="#0065bd" stroke-linecap="round" stroke-miterlimit="10" stroke-width="2"/>
    <rect x="182" y="270" width="42" height="12" fill="#e37222"/>
    <rect x="67" y="18.5" width="14" height="39" fill="#e37222"/>
    <rect x="286.3" y="97.6" width="26.1" height="29.01" fill="#e37222"/>
    <rect x="249" y="18.5" width="42" height="11" fill="#e37222"/>
  </g>
</svg>
