<svg xmlns="http://www.w3.org/2000/svg" width="390" height="130" viewBox="0 0 300 100" class="{{ include.class }}">
  <g>
    <path d="M1,90a17.1,17.1,0,0,1,3,2c1.3,1.1,2.1,2.2,3,2s1.9-2.7,2-4a10.3,10.3,0,0,0-1-5c-1.6-3.9-3.1-4.2-3-6s3.7-5.6,6-5,1.7,1.3,4,7c.3.7.7,2.6,1.4,2.7,2.4.3,4.3-4.2,4.6-7.7s-1.7-6.5-2-7c-1.3-2.2-2.5-2.8-3-5s-.4-4.1,1-5,5.7,1.8,6,2a12.7,12.7,0,0,1,3,4c1.7,3.1,1.3,4.6,3,6a4.3,4.3,0,0,0,3,1,4.6,4.6,0,0,0,3-2c2.3-2.9,2.3-7.5,1-11a17.7,17.7,0,0,0-4-6c-4.3-4.9-7.9-5.9-8-9a5.1,5.1,0,0,1,1-3c2.4-3.4,7.8-3.2,11-3s10.6.5,13,5c1,1.9,1,4.1,1,7s-1,6.2,0,7,4-.2,5-2,.4-2.4,0-5-.4-1.6-1-4a24.1,24.1,0,0,1-1-6c0-1.8,0-3.3,1-4s3.8.4,5,1c3,1.6,3.4,3.3,6,4a4.6,4.6,0,0,0,3,0c2.3-1,2.9-4.2,3-5s-.2-1.8,0-4a11.3,11.3,0,0,1,.6-3.4A8.3,8.3,0,0,1,75,26c3.1-1.5,7.7-1.4,10,1s1.2,2.9,2,3,4.1-3.8,3-7a5.1,5.1,0,0,0-3-3c-2.5-.7-4.5,1.6-5,1s1.5-3.8,4-6a8.9,8.9,0,0,1,3-2c2.4-.8,3.8.1,5-1s.7-1.3,1-3l1-5a6.7,6.7,0,0,1,1.4-3h0" fill="none" stroke="#0065bd" stroke-linecap="round" stroke-linejoin="round" stroke-width="2"/>
    <polygon points="11 8.9 16.4 8.9 16.4 11.6 20.5 11.6 20.5 8.9 30 8.9 33.4 7.5 38.2 7.5 38.2 8.9 40.9 8.9 40.9 22.5 35.5 22.5 35.5 19.8 32.7 19.8 32.7 22.5 19.2 22.5 19.2 29.3 11 32 11 8.9" fill="#e37222"/>
    <polygon points="54 70.7 63.8 70.7 63.8 73.1 77.2 73.1 77.2 67 87 67 87 85.3 71.1 85.3 71.1 82.9 66.2 82.9 66.2 90.2 54 90.2 54 70.7" fill="#e37222"/>
  </g>
  <g>
    <polygon points="238.2 8.9 240.9 8.9 240.9 22.5 235.5 22.5 232.7 22.5 219.2 22.5 219.2 29.3 211 29.3 211 8.9 216.4 8.9 220.5 8.9 233.4 8.9 238.2 8.9" fill="#e37222"/>
    <polygon points="271.1 85.3 287 85.3 287 67 277.2 67 277.2 73.1 263.8 73.1 254 73.1 254 90.2 266.2 90.2 266.2 85.3 271.1 85.3" fill="#e37222"/>
    <path d="M201,91.2c2.7.8,4.2.5,5-.2,2.9-2.2-.5-8.2,3-12s5.9-.8,9-4,1.1-6.8,4-9,8.2,1.4,11-1-.3-6,2-12c1.3-3.2,4.3-7.9,8-8s7.8,7.8,10,7-.8-8.7,3-12,6.2.5,11-2,2.9-5.2,7-8c5.8-4,12.3-.7,14-4s-2.5-5.6-1-9,5.1-2.5,8-5,3.5-4.4,3.6-10.2" fill="none" stroke="#0065bd" stroke-linecap="round" stroke-linejoin="round" stroke-width="2"/>
  </g>
  <g>
    <rect x="1" y="1" width="98" height="98" rx="2" ry="2" fill="none" stroke="#343a40" stroke-miterlimit="10" stroke-width="2"/>
    <rect x="201" y="1" width="98" height="98" rx="2" ry="2" fill="none" stroke="#343a40" stroke-miterlimit="10" stroke-width="2"/>
    <g>
      <line x1="125" y1="50" x2="169.6" y2="50" fill="none" stroke="#343a40" stroke-miterlimit="10" stroke-width="5"/>
      <polygon points="153 70.4 149.6 66.8 167.7 50 149.6 33.2 153 29.6 175 50 153 70.4" fill="#343a40"/>
    </g>
  </g>
</svg>
